Grade analysis
…
There being a lot of students, the graph is really hard to read, we will see in the following questions how defining the number of missing grades by group is easier to read.

##Question 13

missed_exam_group<-reshape_df|>
  filter(str_starts(name,"Exam"))|>
  group_by(Group)|>
  summarise("No grade for the exam"=sum(is.na(value)))
missed_exam_group

# A tibble: 24 × 2
   Group  `No grade for the exam`
   <chr>                    <int>
 1 grp_1                        3
 2 grp_10                       7
 3 grp_11                       6
 4 grp_12                       1
 5 grp_13                       1
 6 grp_14                       1
 7 grp_15                       2
 8 grp_16                       0
 9 grp_17                       5
10 grp_18                       3
# ℹ 14 more rows
…
